<?xml version="1.0" encoding="UTF-8" standalone="no"?>
<!DOCTYPE svg PUBLIC "-//W3C//DTD SVG 1.1//EN"
 "http://www.w3.org/Graphics/SVG/1.1/DTD/svg11.dtd">
<!-- Generated by graphviz version 2.43.0 (0)
 -->
<!-- Title: %3 Pages: 1 -->
<svg width="1537pt" height="404pt"
 viewBox="0.00 0.00 1537.38 404.00" xmlns="http://www.w3.org/2000/svg" xmlns:xlink="http://www.w3.org/1999/xlink">
<g id="graph0" class="graph" transform="scale(1 1) rotate(0) translate(4 400)">
<title>%3</title>
<polygon fill="white" stroke="transparent" points="-4,4 -4,-400 1533.38,-400 1533.38,4 -4,4"/>
<!-- [root] aws_iam_access_key.this (expand) -->
<g id="node1" class="node">
<title>[root] aws_iam_access_key.this (expand)</title>
<polygon fill="none" stroke="black" points="936.88,-180 745.88,-180 745.88,-144 936.88,-144 936.88,-180"/>
<text text-anchor="middle" x="841.38" y="-158.3" font-family="Times,serif" font-size="14.00">aws_iam_access_key.this</text>
</g>
<!-- [root] aws_iam_user.this (expand) -->
<g id="node2" class="node">
<title>[root] aws_iam_user.this (expand)</title>
<polygon fill="none" stroke="black" points="914.38,-108 768.38,-108 768.38,-72 914.38,-72 914.38,-108"/>
<text text-anchor="middle" x="841.38" y="-86.3" font-family="Times,serif" font-size="14.00">aws_iam_user.this</text>
</g>
<!-- [root] aws_iam_access_key.this (expand)&#45;&gt;[root] aws_iam_user.this (expand) -->
<g id="edge1" class="edge">
<title>[root] aws_iam_access_key.this (expand)&#45;&gt;[root] aws_iam_user.this (expand)</title>
<path fill="none" stroke="black" d="M841.38,-143.7C841.38,-135.98 841.38,-126.71 841.38,-118.11"/>
<polygon fill="black" stroke="black" points="844.88,-118.1 841.38,-108.1 837.88,-118.1 844.88,-118.1"/>
</g>
<!-- [root] var.create&#45;aws_iam_access_key -->
<g id="node6" class="node">
<title>[root] var.create&#45;aws_iam_access_key</title>
<polygon fill="none" stroke="black" points="1164.38,-108 932.38,-108 932.38,-72 1170.38,-72 1170.38,-102 1164.38,-108"/>
<polyline fill="none" stroke="black" points="1164.38,-108 1164.38,-102 "/>
<polyline fill="none" stroke="black" points="1170.38,-102 1164.38,-102 "/>
<text text-anchor="middle" x="1051.38" y="-86.3" font-family="Times,serif" font-size="14.00">var.create&#45;aws_iam_access_key</text>
</g>
<!-- [root] aws_iam_access_key.this (expand)&#45;&gt;[root] var.create&#45;aws_iam_access_key -->
<g id="edge2" class="edge">
<title>[root] aws_iam_access_key.this (expand)&#45;&gt;[root] var.create&#45;aws_iam_access_key</title>
<path fill="none" stroke="black" d="M892.48,-143.97C921.95,-134.14 959.19,-121.73 990.21,-111.39"/>
<polygon fill="black" stroke="black" points="991.67,-114.59 1000.05,-108.11 989.46,-107.95 991.67,-114.59"/>
</g>
<!-- [root] var.pgp_key -->
<g id="node14" class="node">
<title>[root] var.pgp_key</title>
<polygon fill="none" stroke="black" points="743.88,-108 648.88,-108 648.88,-72 749.88,-72 749.88,-102 743.88,-108"/>
<polyline fill="none" stroke="black" points="743.88,-108 743.88,-102 "/>
<polyline fill="none" stroke="black" points="749.88,-102 743.88,-102 "/>
<text text-anchor="middle" x="699.38" y="-86.3" font-family="Times,serif" font-size="14.00">var.pgp_key</text>
</g>
<!-- [root] aws_iam_access_key.this (expand)&#45;&gt;[root] var.pgp_key -->
<g id="edge3" class="edge">
<title>[root] aws_iam_access_key.this (expand)&#45;&gt;[root] var.pgp_key</title>
<path fill="none" stroke="black" d="M806.64,-143.88C787.56,-134.47 763.7,-122.71 743.34,-112.67"/>
<polygon fill="black" stroke="black" points="744.77,-109.47 734.25,-108.19 741.67,-115.75 744.77,-109.47"/>
</g>
<!-- [root] provider[&quot;registry.terraform.io/hashicorp/aws&quot;] -->
<g id="node5" class="node">
<title>[root] provider[&quot;registry.terraform.io/hashicorp/aws&quot;]</title>
<polygon fill="none" stroke="black" points="325.38,-36 0.12,-18 325.38,0 650.65,-18 325.38,-36"/>
<text text-anchor="middle" x="325.38" y="-14.3" font-family="Times,serif" font-size="14.00">provider[&quot;registry.terraform.io/hashicorp/aws&quot;]</text>
</g>
<!-- [root] aws_iam_user.this (expand)&#45;&gt;[root] provider[&quot;registry.terraform.io/hashicorp/aws&quot;] -->
<g id="edge4" class="edge">
<title>[root] aws_iam_user.this (expand)&#45;&gt;[root] provider[&quot;registry.terraform.io/hashicorp/aws&quot;]</title>
<path fill="none" stroke="black" d="M768.12,-73.5C765.17,-72.97 762.25,-72.47 759.38,-72 654.01,-54.67 533.39,-40.39 446.1,-31.03"/>
<polygon fill="black" stroke="black" points="446.2,-27.52 435.89,-29.94 445.46,-34.48 446.2,-27.52"/>
</g>
<!-- [root] var.create&#45;aws_iam_user -->
<g id="node7" class="node">
<title>[root] var.create&#45;aws_iam_user</title>
<polygon fill="none" stroke="black" points="853.88,-36 668.88,-36 668.88,0 859.88,0 859.88,-30 853.88,-36"/>
<polyline fill="none" stroke="black" points="853.88,-36 853.88,-30 "/>
<polyline fill="none" stroke="black" points="859.88,-30 853.88,-30 "/>
<text text-anchor="middle" x="764.38" y="-14.3" font-family="Times,serif" font-size="14.00">var.create&#45;aws_iam_user</text>
</g>
<!-- [root] aws_iam_user.this (expand)&#45;&gt;[root] var.create&#45;aws_iam_user -->
<g id="edge5" class="edge">
<title>[root] aws_iam_user.this (expand)&#45;&gt;[root] var.create&#45;aws_iam_user</title>
<path fill="none" stroke="black" d="M822.35,-71.7C812.84,-63.05 801.18,-52.45 790.81,-43.03"/>
<polygon fill="black" stroke="black" points="792.95,-40.24 783.2,-36.1 788.24,-45.42 792.95,-40.24"/>
</g>
<!-- [root] var.name -->
<g id="node11" class="node">
<title>[root] var.name</title>
<polygon fill="none" stroke="black" points="954.38,-36 878.38,-36 878.38,0 960.38,0 960.38,-30 954.38,-36"/>
<polyline fill="none" stroke="black" points="954.38,-36 954.38,-30 "/>
<polyline fill="none" stroke="black" points="960.38,-30 954.38,-30 "/>
<text text-anchor="middle" x="919.38" y="-14.3" font-family="Times,serif" font-size="14.00">var.name</text>
</g>
<!-- [root] aws_iam_user.this (expand)&#45;&gt;[root] var.name -->
<g id="edge6" class="edge">
<title>[root] aws_iam_user.this (expand)&#45;&gt;[root] var.name</title>
<path fill="none" stroke="black" d="M860.66,-71.7C870.3,-63.05 882.11,-52.45 892.61,-43.03"/>
<polygon fill="black" stroke="black" points="895.22,-45.39 900.32,-36.1 890.54,-40.18 895.22,-45.39"/>
</g>
<!-- [root] var.path -->
<g id="node13" class="node">
<title>[root] var.path</title>
<polygon fill="none" stroke="black" points="1047.88,-36 978.88,-36 978.88,0 1053.88,0 1053.88,-30 1047.88,-36"/>
<polyline fill="none" stroke="black" points="1047.88,-36 1047.88,-30 "/>
<polyline fill="none" stroke="black" points="1053.88,-30 1047.88,-30 "/>
<text text-anchor="middle" x="1016.38" y="-14.3" font-family="Times,serif" font-size="14.00">var.path</text>
</g>
<!-- [root] aws_iam_user.this (expand)&#45;&gt;[root] var.path -->
<g id="edge7" class="edge">
<title>[root] aws_iam_user.this (expand)&#45;&gt;[root] var.path</title>
<path fill="none" stroke="black" d="M884.19,-71.88C909.97,-61.57 942.81,-48.43 969.32,-37.83"/>
<polygon fill="black" stroke="black" points="970.78,-41.01 978.77,-34.05 968.18,-34.51 970.78,-41.01"/>
</g>
<!-- [root] aws_iam_user_login_profile.this (expand) -->
<g id="node3" class="node">
<title>[root] aws_iam_user_login_profile.this (expand)</title>
<polygon fill="none" stroke="black" points="677.38,-180 435.38,-180 435.38,-144 677.38,-144 677.38,-180"/>
<text text-anchor="middle" x="556.38" y="-158.3" font-family="Times,serif" font-size="14.00">aws_iam_user_login_profile.this</text>
</g>
<!-- [root] aws_iam_user_login_profile.this (expand)&#45;&gt;[root] aws_iam_user.this (expand) -->
<g id="edge8" class="edge">
<title>[root] aws_iam_user_login_profile.this (expand)&#45;&gt;[root] aws_iam_user.this (expand)</title>
<path fill="none" stroke="black" d="M625.74,-143.97C666.86,-133.87 719.12,-121.03 761.9,-110.52"/>
<polygon fill="black" stroke="black" points="762.84,-113.9 771.72,-108.11 761.17,-107.1 762.84,-113.9"/>
</g>
<!-- [root] var.create&#45;aws_iam_user_login_profile -->
<g id="node9" class="node">
<title>[root] var.create&#45;aws_iam_user_login_profile</title>
<polygon fill="none" stroke="black" points="624.38,-108 344.38,-108 344.38,-72 630.38,-72 630.38,-102 624.38,-108"/>
<polyline fill="none" stroke="black" points="624.38,-108 624.38,-102 "/>
<polyline fill="none" stroke="black" points="630.38,-102 624.38,-102 "/>
<text text-anchor="middle" x="487.38" y="-86.3" font-family="Times,serif" font-size="14.00">var.create&#45;aws_iam_user_login_profile</text>
</g>
<!-- [root] aws_iam_user_login_profile.this (expand)&#45;&gt;[root] var.create&#45;aws_iam_user_login_profile -->
<g id="edge9" class="edge">
<title>[root] aws_iam_user_login_profile.this (expand)&#45;&gt;[root] var.create&#45;aws_iam_user_login_profile</title>
<path fill="none" stroke="black" d="M539.33,-143.7C530.89,-135.14 520.56,-124.66 511.34,-115.3"/>
<polygon fill="black" stroke="black" points="513.75,-112.77 504.24,-108.1 508.77,-117.68 513.75,-112.77"/>
</g>
<!-- [root] var.password_reset_required -->
<g id="node12" class="node">
<title>[root] var.password_reset_required</title>
<polygon fill="none" stroke="black" points="319.88,-108 102.88,-108 102.88,-72 325.88,-72 325.88,-102 319.88,-108"/>
<polyline fill="none" stroke="black" points="319.88,-108 319.88,-102 "/>
<polyline fill="none" stroke="black" points="325.88,-102 319.88,-102 "/>
<text text-anchor="middle" x="214.38" y="-86.3" font-family="Times,serif" font-size="14.00">var.password_reset_required</text>
</g>
<!-- [root] aws_iam_user_login_profile.this (expand)&#45;&gt;[root] var.password_reset_required -->
<g id="edge10" class="edge">
<title>[root] aws_iam_user_login_profile.this (expand)&#45;&gt;[root] var.password_reset_required</title>
<path fill="none" stroke="black" d="M473.16,-143.97C423.1,-133.72 359.27,-120.66 307.53,-110.07"/>
<polygon fill="black" stroke="black" points="308.18,-106.63 297.68,-108.05 306.78,-113.48 308.18,-106.63"/>
</g>
<!-- [root] aws_iam_user_login_profile.this (expand)&#45;&gt;[root] var.pgp_key -->
<g id="edge11" class="edge">
<title>[root] aws_iam_user_login_profile.this (expand)&#45;&gt;[root] var.pgp_key</title>
<path fill="none" stroke="black" d="M591.36,-143.88C610.58,-134.47 634.61,-122.71 655.12,-112.67"/>
<polygon fill="black" stroke="black" points="656.82,-115.73 664.27,-108.19 653.74,-109.44 656.82,-115.73"/>
</g>
<!-- [root] output.aws_iam_user&#45;credentials -->
<g id="node4" class="node">
<title>[root] output.aws_iam_user&#45;credentials</title>
<polygon fill="none" stroke="black" points="1010.88,-252 765.88,-252 765.88,-216 1016.88,-216 1016.88,-246 1010.88,-252"/>
<polyline fill="none" stroke="black" points="1010.88,-252 1010.88,-246 "/>
<polyline fill="none" stroke="black" points="1016.88,-246 1010.88,-246 "/>
<text text-anchor="middle" x="891.38" y="-230.3" font-family="Times,serif" font-size="14.00">output.aws_iam_user&#45;credentials</text>
</g>
<!-- [root] output.aws_iam_user&#45;credentials&#45;&gt;[root] aws_iam_access_key.this (expand) -->
<g id="edge15" class="edge">
<title>[root] output.aws_iam_user&#45;credentials&#45;&gt;[root] aws_iam_access_key.this (expand)</title>
<path fill="none" stroke="black" d="M879.02,-215.7C873.15,-207.47 866.01,-197.48 859.54,-188.42"/>
<polygon fill="black" stroke="black" points="862.26,-186.21 853.6,-180.1 856.56,-190.28 862.26,-186.21"/>
</g>
<!-- [root] output.aws_iam_user&#45;credentials&#45;&gt;[root] aws_iam_user_login_profile.this (expand) -->
<g id="edge16" class="edge">
<title>[root] output.aws_iam_user&#45;credentials&#45;&gt;[root] aws_iam_user_login_profile.this (expand)</title>
<path fill="none" stroke="black" d="M809.86,-215.97C760.93,-205.74 698.56,-192.71 647.94,-182.13"/>
<polygon fill="black" stroke="black" points="648.48,-178.67 637.98,-180.05 647.05,-185.52 648.48,-178.67"/>
</g>
<!-- [root] var.create&#45;aws_iam_user_group_membership -->
<g id="node8" class="node">
<title>[root] var.create&#45;aws_iam_user_group_membership</title>
<polygon fill="none" stroke="black" points="1365.38,-252 1035.38,-252 1035.38,-216 1371.38,-216 1371.38,-246 1365.38,-252"/>
<polyline fill="none" stroke="black" points="1365.38,-252 1365.38,-246 "/>
<polyline fill="none" stroke="black" points="1371.38,-246 1365.38,-246 "/>
<text text-anchor="middle" x="1203.38" y="-230.3" font-family="Times,serif" font-size="14.00">var.create&#45;aws_iam_user_group_membership</text>
</g>
<!-- [root] var.force_destroy -->
<g id="node10" class="node">
<title>[root] var.force_destroy</title>
<polygon fill="none" stroke="black" points="1523.38,-252 1389.38,-252 1389.38,-216 1529.38,-216 1529.38,-246 1523.38,-252"/>
<polyline fill="none" stroke="black" points="1523.38,-252 1523.38,-246 "/>
<polyline fill="none" stroke="black" points="1529.38,-246 1523.38,-246 "/>
<text text-anchor="middle" x="1459.38" y="-230.3" font-family="Times,serif" font-size="14.00">var.force_destroy</text>
</g>
<!-- [root] meta.count&#45;boundary (EachMode fixup) -->
<g id="node15" class="node">
<title>[root] meta.count&#45;boundary (EachMode fixup)</title>
<ellipse fill="none" stroke="black" cx="1047.38" cy="-306" rx="222.86" ry="18"/>
<text text-anchor="middle" x="1047.38" y="-302.3" font-family="Times,serif" font-size="14.00">[root] meta.count&#45;boundary (EachMode fixup)</text>
</g>
<!-- [root] meta.count&#45;boundary (EachMode fixup)&#45;&gt;[root] output.aws_iam_user&#45;credentials -->
<g id="edge12" class="edge">
<title>[root] meta.count&#45;boundary (EachMode fixup)&#45;&gt;[root] output.aws_iam_user&#45;credentials</title>
<path fill="none" stroke="black" d="M1010.02,-288.23C988.63,-278.63 961.58,-266.5 938.71,-256.24"/>
<polygon fill="black" stroke="black" points="940.08,-253.02 929.53,-252.12 937.22,-259.4 940.08,-253.02"/>
</g>
<!-- [root] meta.count&#45;boundary (EachMode fixup)&#45;&gt;[root] var.create&#45;aws_iam_user_group_membership -->
<g id="edge13" class="edge">
<title>[root] meta.count&#45;boundary (EachMode fixup)&#45;&gt;[root] var.create&#45;aws_iam_user_group_membership</title>
<path fill="none" stroke="black" d="M1084.75,-288.23C1106.14,-278.63 1133.18,-266.5 1156.05,-256.24"/>
<polygon fill="black" stroke="black" points="1157.55,-259.4 1165.24,-252.12 1154.68,-253.02 1157.55,-259.4"/>
</g>
<!-- [root] meta.count&#45;boundary (EachMode fixup)&#45;&gt;[root] var.force_destroy -->
<g id="edge14" class="edge">
<title>[root] meta.count&#45;boundary (EachMode fixup)&#45;&gt;[root] var.force_destroy</title>
<path fill="none" stroke="black" d="M1150.76,-290.02C1214.06,-280.5 1296.94,-267.41 1379.18,-252.17"/>
<polygon fill="black" stroke="black" points="1380.02,-255.58 1389.21,-250.31 1378.74,-248.7 1380.02,-255.58"/>
</g>
<!-- [root] provider[&quot;registry.terraform.io/hashicorp/aws&quot;] (close) -->
<g id="node16" class="node">
<title>[root] provider[&quot;registry.terraform.io/hashicorp/aws&quot;] (close)</title>
<ellipse fill="none" stroke="black" cx="456.38" cy="-234" rx="291.65" ry="18"/>
<text text-anchor="middle" x="456.38" y="-230.3" font-family="Times,serif" font-size="14.00">[root] provider[&quot;registry.terraform.io/hashicorp/aws&quot;] (close)</text>
</g>
<!-- [root] provider[&quot;registry.terraform.io/hashicorp/aws&quot;] (close)&#45;&gt;[root] aws_iam_access_key.this (expand) -->
<g id="edge17" class="edge">
<title>[root] provider[&quot;registry.terraform.io/hashicorp/aws&quot;] (close)&#45;&gt;[root] aws_iam_access_key.this (expand)</title>
<path fill="none" stroke="black" d="M545.19,-216.85C602.62,-206.41 677.6,-192.78 737.75,-181.84"/>
<polygon fill="black" stroke="black" points="738.43,-185.28 747.65,-180.04 737.18,-178.39 738.43,-185.28"/>
</g>
<!-- [root] provider[&quot;registry.terraform.io/hashicorp/aws&quot;] (close)&#45;&gt;[root] aws_iam_user_login_profile.this (expand) -->
<g id="edge18" class="edge">
<title>[root] provider[&quot;registry.terraform.io/hashicorp/aws&quot;] (close)&#45;&gt;[root] aws_iam_user_login_profile.this (expand)</title>
<path fill="none" stroke="black" d="M480.59,-216.05C493.51,-207.01 509.6,-195.74 523.63,-185.93"/>
<polygon fill="black" stroke="black" points="525.87,-188.63 532.05,-180.03 521.85,-182.9 525.87,-188.63"/>
</g>
<!-- [root] root -->
<g id="node17" class="node">
<title>[root] root</title>
<ellipse fill="none" stroke="black" cx="829.38" cy="-378" rx="58.49" ry="18"/>
<text text-anchor="middle" x="829.38" y="-374.3" font-family="Times,serif" font-size="14.00">[root] root</text>
</g>
<!-- [root] root&#45;&gt;[root] meta.count&#45;boundary (EachMode fixup) -->
<g id="edge19" class="edge">
<title>[root] root&#45;&gt;[root] meta.count&#45;boundary (EachMode fixup)</title>
<path fill="none" stroke="black" d="M868.36,-364.49C900.96,-354.02 948.06,-338.89 985.76,-326.79"/>
<polygon fill="black" stroke="black" points="987.18,-330.01 995.63,-323.62 985.04,-323.34 987.18,-330.01"/>
</g>
<!-- [root] root&#45;&gt;[root] provider[&quot;registry.terraform.io/hashicorp/aws&quot;] (close) -->
<g id="edge20" class="edge">
<title>[root] root&#45;&gt;[root] provider[&quot;registry.terraform.io/hashicorp/aws&quot;] (close)</title>
<path fill="none" stroke="black" d="M793.95,-363.51C728.38,-338.55 587.74,-285.01 510.29,-255.52"/>
<polygon fill="black" stroke="black" points="511.3,-252.16 500.71,-251.88 508.81,-258.7 511.3,-252.16"/>
</g>
</g>
</svg>
